{
    [
            {"id":0, "content": "Example content", "uclass":"AActor","type":0},
            {"id":1, "content": "Example content", "uclass":"AActor","type":1},
            {"id":2, "content": "Example content", "uclass":"AActor","type":2}
    ]
}